{"page":1,"total_results":33,"total_pages":2,"results":[{"vote_count":4271,"id":181808,"video":false,"vote_average":7.2,"title":"Star Wars: The Last Jedi","popularity":191.306838,"poster_path":"\/kOVEVeg59E0wsnXmF9nrh6OmWII.jpg","original_language":"en","original_title":"Star Wars: The Last Jedi","genre_ids":[28,14,12],"backdrop_path":"\/c4Dw37VZjBmObmJw9bmt8IDwMZH.jpg","adult":false,"overview":"Rey develops her newly discovered abilities with the guidance of Luke Skywalker, who is unsettled by the strength of her powers. Meanwhile, the Resistance prepares to do battle with the First Order.","release_date":"2017-12-13"},{"vote_count":143,"id":355547,"video":false,"vote_average":4.9,"title":"The Star","popularity":14.971458,"poster_path":"\/zms2RpkqjAtCsbjndTG9gAGWvnx.jpg","original_language":"en","original_title":"The Star","genre_ids":[35,16,12],"backdrop_path":"\/iUzSCEpJhAWtJqKEVBfJTY7Blkn.jpg","adult":false,"overview":"A small but brave donkey and his animal friends become the unsung heroes of the greatest story ever told, the first Christmas.","release_date":"2017-11-15"},{"vote_count":2,"id":454541,"video":false,"vote_average":7,"title":"Star Wars: The Force and the Fury","popularity":3.510933,"poster_path":"\/fhobv7AxcP8Xszd6tqIZeOgYjHX.jpg","original_language":"en","original_title":"Star Wars: The Force and the Fury","genre_ids":[],"backdrop_path":null,"adult":false,"overview":"A Jedi  crash-lands on a planet and faces off against a Sith who has a grudge against him.","release_date":"2017-04-22"},{"vote_count":0,"id":451204,"video":false,"vote_average":0,"title":"The Last Movie Star","popularity":1.731831,"poster_path":"\/lG5dabMULAKGJ3xGAHsSjuRzmUB.jpg","original_language":"en","original_title":"The Last Movie Star","genre_ids":[18],"backdrop_path":"\/gj7j4LfvX0xoFbhMj7QUzvHkVR3.jpg","adult":false,"overview":"Vic Edwards was one of the biggest movie stars in the world, known for his mustachioed good looks and cocky swagger. With his Hollywood glory a distant memory, the now-octogenarian Vic is prompted to reassess his life with the passing of his beloved dog and the arrival of an invitation to receive a lifetime achievement award from the (fictional) International Nashville Film Festival.","release_date":"2017-04-22"},{"vote_count":1,"id":478226,"video":false,"vote_average":8,"title":"The Star Next Door","popularity":1.614984,"poster_path":"\/oguqYswdXpjtlWrrM3tm6sLhROp.jpg","original_language":"ko","original_title":"이웃집 스타","genre_ids":[35],"backdrop_path":"\/tsiOhL5BKZrl9B4c2zusWOmGs2l.jpg","adult":false,"overview":"A top actress lives next door to a teenage tennis player named So-eun who is, in fact, her daughter. Mother and daughter don't quite get along.","release_date":"2017-09-21"},{"vote_count":10,"id":433829,"video":false,"vote_average":3.8,"title":"Star Raiders: The Adventures of Saber Raine","popularity":2.363942,"poster_path":"\/cPK3Pbq9IRPvO2sLpA6NNVZ3L92.jpg","original_language":"en","original_title":"Star Raiders: The Adventures of Saber Raine","genre_ids":[12,878],"backdrop_path":"\/3lgPSJt6YMqdLTggmz5VuHT4vZa.jpg","adult":false,"overview":"Saber Raine is hired to guide three elite soldiers on a rescue mission to recover a prince and princess who have been abducted from their home world. The trail leads Saber and his allies to a planet deep within uncharted space that is inhabited by strange mutated creatures.","release_date":"2017-05-08"},{"vote_count":1,"id":401408,"video":false,"vote_average":8,"title":"Leslie Caron: The Reluctant Star","popularity":1.116063,"poster_path":"\/pd7Wlt2OnOa5I8NVxUMDflzEz6H.jpg","original_language":"en","original_title":"Leslie Caron, française à Hollywood, américaine à Paris","genre_ids":[99],"backdrop_path":null,"adult":false,"overview":"Leslie Caron, beloved star of Gigi and An American in Paris, is one of the last witnesses to the golden age of American cinema of the mid 20th century.  Discovered by Gene Kelly when she was a teenager, she became one of the great talents in the worlds of film, dance, and theatre, still performing to this day!  The film reveals a story told through the prism of a living legend who reveals secrets of her work and life- a world of contradictions, ambitions and dreams, lived by one of its most luminous personalities.","release_date":"2016-06-28"},{"vote_count":4,"id":463288,"video":false,"vote_average":7.5,"title":"Star vs. the Forces of Evil: The Battle for Mewni","popularity":1.612999,"poster_path":"\/hbuZzy7Khp9GmABZT9WPTVT4fnx.jpg","original_language":"en","original_title":"Star vs. the Forces of Evil: The Battle for Mewni","genre_ids":[14,16,35],"backdrop_path":null,"adult":false,"overview":"Star returns to her home dimension of Mewni where she discovers that magic is disappearing throughout the kingdom. Star must dig deep and challenge archnemesis Ludo in an effort to save her family and kingdom.","release_date":"2017-07-15"},{"vote_count":0,"id":493616,"video":true,"vote_average":0,"title":"How Star Wars was saved in the edit","popularity":1.210242,"poster_path":"\/7NkddvhiLok0lCO9CNRjiTVHFwX.jpg","original_language":"en","original_title":"How Star Wars was saved in the edit","genre_ids":[],"backdrop_path":"\/rJfcoD0umJpDkZymuFJ06yvyGmK.jpg","adult":false,"overview":"A video essay exploring how Star Wars' editors recut and rearranged Star Wars: A New Hope to create the cinematic classic it became.  Check out more essays at http:\/\/youtube.com\/rjfilmschool  Written by David Welch (@watsonwelch)  Narrated and Edited by Joey Scoma (@joey2meals)  References:  Deleted Magic  https:\/\/www.youtube.com\/watch?v=f2r4N...  Deleted Scenes  https:\/\/www.youtube.com\/watch?v=f00Ik...  Harmy's Star Wars: Despecialized Edition  https:\/\/www.youtube.com\/watch?v=dHfLX...  Empire of Dreams  https:\/\/www.youtube.com\/watch?v=Nw_Ve...  More awesome videos at RocketJump.com!  RJ Store ?  http:\/\/shop.rocketjump.com  Follow RocketJump on Twitter ?  http:\/\/bit.ly\/RJtweet  Follow RJFS on Twitter ?  https:\/\/twitter.com\/rjfilmschool  Join the discussion ?  https:\/\/discuss.rocketjump.com\/","release_date":"2017-12-07"},{"vote_count":0,"id":465370,"video":false,"vote_average":0,"title":"Star Wars Knights of the Old Republic: Episode 1: A Familiar Path - Special Edition","popularity":1.906497,"poster_path":"\/nnAe38HbzJLtNO54VnAAA4QS5m4.jpg","original_language":"en","original_title":"Star Wars Knights of the Old Republic: Episode 1: A Familiar Path - Special Edition","genre_ids":[28,12],"backdrop_path":"\/2odGNsZlTIO4YuBl3V97QRsUY2N.jpg","adult":false,"overview":"The Galactic Republic lies on the verge of collapse. Darth Malak has seized the mantle of Dark Lord and unleashed an invincible Sith armada upon an unsuspecting galaxy. As Malak's war of conquest grips the Outer Rim, a young Jedi named Bastila Shan sets forth on a dangerous journey that will change the fate of the galaxy....","release_date":"2017-07-05"},{"vote_count":0,"id":458189,"video":false,"vote_average":0,"title":"Snowy Bing Bongs Across the North Star Combat Zone","popularity":1.174209,"poster_path":"\/xCRrXWV40P2aBB8AbVqtC98RxSE.jpg","original_language":"en","original_title":"Snowy Bing Bongs Across the North Star Combat Zone","genre_ids":[],"backdrop_path":null,"adult":false,"overview":"A performance art piece by dance-comedy trio Cocoon Central Dance Team.","release_date":"2017-06-19"},{"vote_count":0,"id":503348,"video":false,"vote_average":0,"title":"Star Wars Episode III: Revenge of the Sith Special Edition","popularity":1.171563,"poster_path":"\/ej8Ji5uiz7lt7yBIy2gBGBIqpvP.jpg","original_language":"en","original_title":"Star Wars Episode III: Revenge of the Sith Special Edition","genre_ids":[],"backdrop_path":"\/zB1N6gQvSq0PtHja6d6R0nMvImG.jpg","adult":false,"overview":"A comedic \"demake\" of the third Star Wars prequel film using about eight actors, poorly-made costumes, shoddy special effects, and even worse acting than the original prequels.","release_date":"2017-07-04"},{"vote_count":0,"id":465411,"video":false,"vote_average":0,"title":"Star Wars Knights of the Old Republic: Episode VI: Knights and the Darkness Pt. II","popularity":1.048892,"poster_path":"\/7tJj8SkubVdUZqdCMGQMWN1bOck.jpg","original_language":"en","original_title":"Star Wars Knights of the Old Republic: Episode VI: Knights and the Darkness Pt. II","genre_ids":[28,12,14,878],"backdrop_path":"\/cThKoEghKIgmbTG7UvhaUX4VjJS.jpg","adult":false,"overview":"Now paired with Logan Starr, the Exile has found the path she must walk. But can she do it?","release_date":"2017-01-28"},{"vote_count":22,"id":450823,"video":false,"vote_average":6.1,"title":"The Startup: Accendi il tuo futuro","popularity":4.653672,"poster_path":"\/4l15vWNRdHzV3wJ5YbhYZgeygok.jpg","original_language":"it","original_title":"The Startup: Accendi il tuo futuro","genre_ids":[18,35],"backdrop_path":"\/lTUGUJqsA4WJCtn1pwgaJgmIhj2.jpg","adult":false,"overview":"","release_date":"2017-04-06"},{"vote_count":0,"id":457324,"video":false,"vote_average":0,"title":"The Starry Sky Above Me","popularity":4.451403,"poster_path":"\/9yrEGvRFcvU2xnepkB07d0YAmXh.jpg","original_language":"fr","original_title":"Le Ciel étoilé au-dessus de ma tête","genre_ids":[],"backdrop_path":"\/kOix1bSOcT8q1HGmDyLpFdR7Asn.jpg","adult":false,"overview":"1996, Bruno publishes his first novel. He is critically acclaimed and is seen as the french John Fante. Twenty years later, Bruno is soon 50 and has not published anything since. He is single, has no children and lives with a young Femen as a roommate. For him, all goes well but his loved ones are worried and decide to take action.","release_date":"2018-03-07"},{"vote_count":0,"id":497279,"video":false,"vote_average":0,"title":"The Lost Starfighter","popularity":1.229107,"poster_path":"\/nxQc5wmFSySzyM63xpLj9b5Yu3t.jpg","original_language":"en","original_title":"The Lost Starfighter","genre_ids":[878],"backdrop_path":"\/lHomXEvnlTrf4ktYiz46UOKtyhL.jpg","adult":false,"overview":"The misadventures of Blue Squadron as they complete their last day of training. One of Blue Two's pranks sends Blue Five to the wrong coordinates and into enemy territory.","release_date":"2017-12-15"},{"vote_count":4,"id":464207,"video":false,"vote_average":7.3,"title":"The Truth Is in the Stars","popularity":1.582285,"poster_path":"\/tqEtNlOmEAJKrJGGrkGMyLjfRrq.jpg","original_language":"en","original_title":"The Truth Is in the Stars","genre_ids":[99],"backdrop_path":"\/mTQIqIQd8puoDcn3RBYIARc7mmq.jpg","adult":false,"overview":"William Shatner sits down with scientists, innovators and celebrities to discuss how the optimism of 'Star Trek' influenced multiple generations.","release_date":"2017-05-01"},{"vote_count":0,"id":465006,"video":false,"vote_average":0,"title":"The Slum Stars","popularity":1.084648,"poster_path":"\/jkB2jaxdVHDfMbtx8rh07F88Upc.jpg","original_language":"hi","original_title":"The Slum Stars","genre_ids":[18],"backdrop_path":"\/oIYbCk1CsZXyH2LAvnYPMq8M68m.jpg","adult":false,"overview":"The film is about a gang of innocent abandoned kids named Kahaniya, Gudiya and Chandu who lead troubled lives in the slums. The Child trafficker Ghutan, a local don and his keep Surma, use their terror to sell these kids. Ghutan is controlled by a bogus Swami, a criminal who fakes himself as a spiritual leader. Swami is led by Netaji, a greedy politician who has an upper hand in all the crimes.  When Gudiya becomes one of the victim, forced by Surma into sexual exploitation, these kids decide to run away from these people, who are trying to destroy their lives. They somehow travel from the city through dusty roads that lead them into a village in Rajasthan where they meet a Ghost. This ghost then helps the kids to teach Ghutan, Surma, Netaji and other criminal a lesson through his powers.","release_date":"2017-07-07"},{"vote_count":0,"id":473307,"video":false,"vote_average":0,"title":"Love You to the Stars and Back","popularity":1.760717,"poster_path":"\/ntEvHn34fbtGQYczPRaF6vZVYWL.jpg","original_language":"tl","original_title":"Love You to the Stars and Back","genre_ids":[12,18,10749,35],"backdrop_path":"\/2ZAYfTZ1ClBL1XcQEocBaRrlYMB.jpg","adult":false,"overview":"A girl named Mika decides to go on a road trip to look for aliens. During her trip, she accidentally bumps into Caloy whom she gives a free ride to until he reaches his destination. Mika then finds out that Caloy has cancer but despite it, he has learned to accept his fate. Both embark on a journey filled with adventures and misadventures not knowing they would fall in love with each other along the way.","release_date":"2017-08-30"},{"vote_count":1,"id":494895,"video":false,"vote_average":8,"title":"Anne of Green Gables: The Good Stars","popularity":1.364437,"poster_path":"\/rUVvz0pVlqcQi9PZLS3dAA3EFjC.jpg","original_language":"en","original_title":"Anne of Green Gables: The Good Stars","genre_ids":[],"backdrop_path":null,"adult":false,"overview":"","release_date":"2017-02-20"}]}